{
  "data":{
    "curPage":1,
    "datas":[
      {
        "apkLink":"",
        "audit":1,
        "author":"",
        "canEdit":false,
        "chapterId":502,
        "chapterName":"自助",
        "collect":false,
        "courseId":13,
        "desc":"",
        "descMd":"",
        "envelopePic":"",
        "fresh":true,
        "id":16022,
        "link":"https://juejin.im/post/6892927463928627207",
        "niceDate":"5小时前",
        "niceShareDate":"5小时前",
        "origin":"",
        "prefix":"",
        "projectLink":"",
        "publishTime":1604916122000,
        "realSuperChapterId":493,
        "selfVisible":0,
        "shareDate":1604916094000,
        "shareUser":"huangbo",
        "superChapterId":494,
        "superChapterName":"广场Tab",
        "tags":[

        ],
        "title":"ThreadLocal 中对内存泄露的处理",
        "type":0,
        "userId":75686,
        "visible":1,
        "zan":0
      },
      {
        "apkLink":"",
        "audit":1,
        "author":"",
        "canEdit":false,
        "chapterId":502,
        "chapterName":"自助",
        "collect":false,
        "courseId":13,
        "desc":"",
        "descMd":"",
        "envelopePic":"",
        "fresh":true,
        "id":16020,
        "link":"https://juejin.im/post/6892745298209308680",
        "niceDate":"11小时前",
        "niceShareDate":"11小时前",
        "origin":"",
        "prefix":"",
        "projectLink":"",
        "publishTime":1604894397000,
        "realSuperChapterId":493,
        "selfVisible":0,
        "shareDate":1604894397000,
        "shareUser":"qwerhuan",
        "superChapterId":494,
        "superChapterName":"广场Tab",
        "tags":[

        ],
        "title":"Activity生命周期全解析",
        "type":0,
        "userId":66812,
        "visible":1,
        "zan":0
      },
      {
        "apkLink":"",
        "audit":1,
        "author":"",
        "canEdit":false,
        "chapterId":502,
        "chapterName":"自助",
        "collect":false,
        "courseId":13,
        "desc":"",
        "descMd":"",
        "envelopePic":"",
        "fresh":true,
        "id":16019,
        "link":"https://weilu.blog.csdn.net/article/details/109557820",
        "niceDate":"14小时前",
        "niceShareDate":"14小时前",
        "origin":"",
        "prefix":"",
        "projectLink":"",
        "publishTime":1604885989000,
        "realSuperChapterId":493,
        "selfVisible":0,
        "shareDate":1604885989000,
        "shareUser":"唯鹿",
        "superChapterId":494,
        "superChapterName":"广场Tab",
        "tags":[

        ],
        "title":"【译】迁移被废弃的Kotlin Android Extensions插件",
        "type":0,
        "userId":2657,
        "visible":1,
        "zan":0
      },
      {
        "apkLink":"",
        "audit":1,
        "author":"",
        "canEdit":false,
        "chapterId":502,
        "chapterName":"自助",
        "collect":false,
        "courseId":13,
        "desc":"",
        "descMd":"",
        "envelopePic":"",
        "fresh":true,
        "id":16017,
        "link":"https://juejin.im/post/6892793299427491854",
        "niceDate":"22小时前",
        "niceShareDate":"22小时前",
        "origin":"",
        "prefix":"",
        "projectLink":"",
        "publishTime":1604857744000,
        "realSuperChapterId":493,
        "selfVisible":0,
        "shareDate":1604857744000,
        "shareUser":"彭旭锐",
        "superChapterId":494,
        "superChapterName":"广场Tab",
        "tags":[

        ],
        "title":"NDK | 说说 so 库从加载到卸载的全过程",
        "type":0,
        "userId":30587,
        "visible":1,
        "zan":0
      },
      {
        "apkLink":"",
        "audit":1,
        "author":"",
        "canEdit":false,
        "chapterId":510,
        "chapterName":"大厂分享",
        "collect":false,
        "courseId":13,
        "desc":"",
        "descMd":"",
        "envelopePic":"",
        "fresh":true,
        "id":16006,
        "link":"https://www.jianshu.com/p/dc06a6d76bd0",
        "niceDate":"23小时前",
        "niceShareDate":"2天前",
        "origin":"",
        "prefix":"",
        "projectLink":"",
        "publishTime":1604851946000,
        "realSuperChapterId":509,
        "selfVisible":0,
        "shareDate":1604751037000,
        "shareUser":"深红骑士",
        "superChapterId":510,
        "superChapterName":"大厂对外分享",
        "tags":[

        ],
        "title":"QQ音乐Android编译提速之路",
        "type":0,
        "userId":29303,
        "visible":1,
        "zan":0
      },
      {
        "apkLink":"",
        "audit":1,
        "author":"",
        "canEdit":false,
        "chapterId":228,
        "chapterName":"辅助 or 工具类",
        "collect":false,
        "courseId":13,
        "desc":"",
        "descMd":"",
        "envelopePic":"",
        "fresh":true,
        "id":16012,
        "link":"https://juejin.im/post/6892277675012915207",
        "niceDate":"23小时前",
        "niceShareDate":"1天前",
        "origin":"",
        "prefix":"",
        "projectLink":"",
        "publishTime":1604851912000,
        "realSuperChapterId":156,
        "selfVisible":0,
        "shareDate":1604843305000,
        "shareUser":"鸿洋",
        "superChapterId":135,
        "superChapterName":"项目必备",
        "tags":[

        ],
        "title":"App全局灰度化实践-GlobalGray",
        "type":0,
        "userId":2,
        "visible":1,
        "zan":0
      },
      {
        "apkLink":"",
        "audit":1,
        "author":"",
        "canEdit":false,
        "chapterId":308,
        "chapterName":"多线程",
        "collect":false,
        "courseId":13,
        "desc":"",
        "descMd":"",
        "envelopePic":"",
        "fresh":true,
        "id":16013,
        "link":"https://www.jianshu.com/p/3fd1d31fe28e",
        "niceDate":"23小时前",
        "niceShareDate":"1天前",
        "origin":"",
        "prefix":"",
        "projectLink":"",
        "publishTime":1604851891000,
        "realSuperChapterId":244,
        "selfVisible":0,
        "shareDate":1604844126000,
        "shareUser":"深红骑士",
        "superChapterId":245,
        "superChapterName":"Java深入",
        "tags":[

        ],
        "title":"希望是volatile的更后一次理解",
        "type":0,
        "userId":29303,
        "visible":1,
        "zan":0
      },
      {
        "apkLink":"",
        "audit":1,
        "author":"",
        "canEdit":false,
        "chapterId":468,
        "chapterName":"Glide",
        "collect":false,
        "courseId":13,
        "desc":"",
        "descMd":"",
        "envelopePic":"",
        "fresh":true,
        "id":16015,
        "link":"https://juejin.im/post/6892751013544263687",
        "niceDate":"23小时前",
        "niceShareDate":"23小时前",
        "origin":"",
        "prefix":"",
        "projectLink":"",
        "publishTime":1604851865000,
        "realSuperChapterId":460,
        "selfVisible":0,
        "shareDate":1604851767000,
        "shareUser":"鸿洋",
        "superChapterId":461,
        "superChapterName":"常见开源库源码解析",
        "tags":[

        ],
        "title":"三方库源码笔记（10）-Glide 你可能不知道的知识点",
        "type":0,
        "userId":2,
        "visible":1,
        "zan":0
      },
      {
        "apkLink":"",
        "audit":1,
        "author":"",
        "canEdit":false,
        "chapterId":486,
        "chapterName":"LiveData",
        "collect":false,
        "courseId":13,
        "desc":"",
        "descMd":"",
        "envelopePic":"",
        "fresh":true,
        "id":16016,
        "link":"https://juejin.im/post/6892704779781275662",
        "niceDate":"23小时前",
        "niceShareDate":"23小时前",
        "origin":"",
        "prefix":"",
        "projectLink":"",
        "publishTime":1604851848000,
        "realSuperChapterId":422,
        "selfVisible":0,
        "shareDate":1604851796000,
        "shareUser":"鸿洋",
        "superChapterId":423,
        "superChapterName":"Jetpack",
        "tags":[

        ],
        "title":"【带着问题学】关于LiveData你应该知道的知识点",
        "type":0,
        "userId":2,
        "visible":1,
        "zan":0
      },
      {
        "apkLink":"",
        "audit":1,
        "author":"",
        "canEdit":false,
        "chapterId":502,
        "chapterName":"自助",
        "collect":false,
        "courseId":13,
        "desc":"",
        "descMd":"",
        "envelopePic":"",
        "fresh":true,
        "id":16014,
        "link":"https://juejin.im/post/6892294041632210957",
        "niceDate":"1天前",
        "niceShareDate":"1天前",
        "origin":"",
        "prefix":"",
        "projectLink":"",
        "publishTime":1604849612000,
        "realSuperChapterId":493,
        "selfVisible":0,
        "shareDate":1604849612000,
        "shareUser":"彭旭锐",
        "superChapterId":494,
        "superChapterName":"广场Tab",
        "tags":[

        ],
        "title":"NDK | 带你探究 getProperty() 获取系统属性原理",
        "type":0,
        "userId":30587,
        "visible":1,
        "zan":0
      },
      {
        "apkLink":"",
        "audit":1,
        "author":"",
        "canEdit":false,
        "chapterId":99,
        "chapterName":"具体案例",
        "collect":false,
        "courseId":13,
        "desc":"",
        "descMd":"",
        "envelopePic":"",
        "fresh":false,
        "id":15992,
        "link":"https://juejin.im/post/6891573246114660365",
        "niceDate":"2020-11-06 00:15",
        "niceShareDate":"2020-11-06 00:11",
        "origin":"",
        "prefix":"",
        "projectLink":"",
        "publishTime":1604592925000,
        "realSuperChapterId":37,
        "selfVisible":0,
        "shareDate":1604592672000,
        "shareUser":"鸿洋",
        "superChapterId":126,
        "superChapterName":"自定义控件",
        "tags":[

        ],
        "title":"为自己的开源控件ShadowLayout3.0不止于阴影，打打气",
        "type":0,
        "userId":2,
        "visible":1,
        "zan":0
      },
      {
        "apkLink":"",
        "audit":1,
        "author":"",
        "canEdit":false,
        "chapterId":320,
        "chapterName":"内存管理",
        "collect":false,
        "courseId":13,
        "desc":"",
        "descMd":"",
        "envelopePic":"",
        "fresh":false,
        "id":15993,
        "link":"https://juejin.im/post/6891589544161116168#heading-14",
        "niceDate":"2020-11-06 00:15",
        "niceShareDate":"2020-11-06 00:11",
        "origin":"",
        "prefix":"",
        "projectLink":"",
        "publishTime":1604592917000,
        "realSuperChapterId":244,
        "selfVisible":0,
        "shareDate":1604592691000,
        "shareUser":"鸿洋",
        "superChapterId":245,
        "superChapterName":"Java深入",
        "tags":[

        ],
        "title":"《Android 工程师进阶》笔记3：GC 回收机制与分代回收策略",
        "type":0,
        "userId":2,
        "visible":1,
        "zan":0
      },
      {
        "apkLink":"",
        "audit":1,
        "author":"",
        "canEdit":false,
        "chapterId":99,
        "chapterName":"具体案例",
        "collect":false,
        "courseId":13,
        "desc":"",
        "descMd":"",
        "envelopePic":"",
        "fresh":false,
        "id":15994,
        "link":"https://juejin.im/post/6891284263174406157",
        "niceDate":"2020-11-06 00:15",
        "niceShareDate":"2020-11-06 00:11",
        "origin":"",
        "prefix":"",
        "projectLink":"",
        "publishTime":1604592905000,
        "realSuperChapterId":37,
        "selfVisible":0,
        "shareDate":1604592706000,
        "shareUser":"鸿洋",
        "superChapterId":126,
        "superChapterName":"自定义控件",
        "tags":[

        ],
        "title":"TextView 实现跟随标签",
        "type":0,
        "userId":2,
        "visible":1,
        "zan":0
      },
      {
        "apkLink":"",
        "audit":1,
        "author":"",
        "canEdit":false,
        "chapterId":228,
        "chapterName":"辅助 or 工具类",
        "collect":false,
        "courseId":13,
        "desc":"",
        "descMd":"",
        "envelopePic":"",
        "fresh":false,
        "id":15995,
        "link":"https://www.jianshu.com/p/e2eb509b04e7",
        "niceDate":"2020-11-06 00:14",
        "niceShareDate":"2020-11-06 00:12",
        "origin":"",
        "prefix":"",
        "projectLink":"",
        "publishTime":1604592895000,
        "realSuperChapterId":156,
        "selfVisible":0,
        "shareDate":1604592751000,
        "shareUser":"鸿洋",
        "superChapterId":135,
        "superChapterName":"项目必备",
        "tags":[

        ],
        "title":"排障困难？给你的应用嵌入一个Logcat吧!",
        "type":0,
        "userId":2,
        "visible":1,
        "zan":0
      },
      {
        "apkLink":"",
        "audit":1,
        "author":"",
        "canEdit":false,
        "chapterId":78,
        "chapterName":"性能优化",
        "collect":false,
        "courseId":13,
        "desc":"",
        "descMd":"",
        "envelopePic":"",
        "fresh":false,
        "id":15996,
        "link":"https://www.jianshu.com/p/f9e42a4d5a28",
        "niceDate":"2020-11-06 00:14",
        "niceShareDate":"2020-11-06 00:12",
        "origin":"",
        "prefix":"",
        "projectLink":"",
        "publishTime":1604592885000,
        "realSuperChapterId":53,
        "selfVisible":0,
        "shareDate":1604592774000,
        "shareUser":"鸿洋",
        "superChapterId":76,
        "superChapterName":"热门专题",
        "tags":[

        ],
        "title":"Android 性能测试 - 流畅度",
        "type":0,
        "userId":2,
        "visible":1,
        "zan":0
      },
      {
        "apkLink":"",
        "audit":1,
        "author":"谷歌开发者",
        "canEdit":false,
        "chapterId":415,
        "chapterName":"谷歌开发者",
        "collect":false,
        "courseId":13,
        "desc":"",
        "descMd":"",
        "envelopePic":"",
        "fresh":false,
        "id":15999,
        "link":"https://mp.weixin.qq.com/s/U_c1l25kSUwnVLcIWYVBcQ",
        "niceDate":"2020-11-06 00:00",
        "niceShareDate":"2天前",
        "origin":"",
        "prefix":"",
        "projectLink":"",
        "publishTime":1604592000000,
        "realSuperChapterId":407,
        "selfVisible":0,
        "shareDate":1604678179000,
        "shareUser":"",
        "superChapterId":408,
        "superChapterName":"公众号",
        "tags":[
          {
            "name":"公众号",
            "url":"/wxarticle/list/415/1"
          }
        ],
        "title":"实现边到边的体验 | 让您的软键盘动起来 (一)",
        "type":0,
        "userId":-1,
        "visible":1,
        "zan":0
      },
      {
        "apkLink":"",
        "audit":1,
        "author":"谷歌开发者",
        "canEdit":false,
        "chapterId":415,
        "chapterName":"谷歌开发者",
        "collect":false,
        "courseId":13,
        "desc":"",
        "descMd":"",
        "envelopePic":"",
        "fresh":false,
        "id":16000,
        "link":"https://mp.weixin.qq.com/s/ThrdbShSJOj0uRU3XpBEpg",
        "niceDate":"2020-11-06 00:00",
        "niceShareDate":"2天前",
        "origin":"",
        "prefix":"",
        "projectLink":"",
        "publishTime":1604592000000,
        "realSuperChapterId":407,
        "selfVisible":0,
        "shareDate":1604678192000,
        "shareUser":"",
        "superChapterId":408,
        "superChapterName":"公众号",
        "tags":[
          {
            "name":"公众号",
            "url":"/wxarticle/list/415/1"
          }
        ],
        "title":"深入探索 Android Gradle 插件的缓存配置",
        "type":0,
        "userId":-1,
        "visible":1,
        "zan":0
      },
      {
        "apkLink":"",
        "audit":1,
        "author":"鸿洋",
        "canEdit":false,
        "chapterId":408,
        "chapterName":"鸿洋",
        "collect":false,
        "courseId":13,
        "desc":"",
        "descMd":"",
        "envelopePic":"",
        "fresh":false,
        "id":16001,
        "link":"https://mp.weixin.qq.com/s/p7tegwkkiS-LJax9n-Mu0w",
        "niceDate":"2020-11-06 00:00",
        "niceShareDate":"2天前",
        "origin":"",
        "prefix":"",
        "projectLink":"",
        "publishTime":1604592000000,
        "realSuperChapterId":407,
        "selfVisible":0,
        "shareDate":1604678207000,
        "shareUser":"",
        "superChapterId":408,
        "superChapterName":"公众号",
        "tags":[
          {
            "name":"公众号",
            "url":"/wxarticle/list/408/1"
          }
        ],
        "title":"看 Google 是如何设计的 View 机制？",
        "type":0,
        "userId":-1,
        "visible":1,
        "zan":0
      },
      {
        "apkLink":"",
        "audit":1,
        "author":"郭霖",
        "canEdit":false,
        "chapterId":409,
        "chapterName":"郭霖",
        "collect":false,
        "courseId":13,
        "desc":"",
        "descMd":"",
        "envelopePic":"",
        "fresh":false,
        "id":16002,
        "link":"https://mp.weixin.qq.com/s/VJDBg2X5Bbus8hcbcRxe4A",
        "niceDate":"2020-11-06 00:00",
        "niceShareDate":"2天前",
        "origin":"",
        "prefix":"",
        "projectLink":"",
        "publishTime":1604592000000,
        "realSuperChapterId":407,
        "selfVisible":0,
        "shareDate":1604678220000,
        "shareUser":"",
        "superChapterId":408,
        "superChapterName":"公众号",
        "tags":[
          {
            "name":"公众号",
            "url":"/wxarticle/list/409/1"
          }
        ],
        "title":"ConstraintLayout和MotionLayout使用进阶",
        "type":0,
        "userId":-1,
        "visible":1,
        "zan":0
      }
    ],
    "offset":0,
    "over":false,
    "pageCount":475,
    "size":20,
    "total":9481
  },
  "errorCode":0,
  "errorMsg":""
}